2018-01-23 16:59:36,785 INFO: Microblog startup [in D:\projects\microblog\app\__init__.py:44]
2018-01-24 16:03:53,723 INFO: Microblog startup [in D:\projects\microblog\app\__init__.py:44]
2018-01-24 16:04:08,582 INFO: Microblog startup [in D:\projects\microblog\app\__init__.py:44]
2018-01-24 20:13:28,266 INFO: Microblog startup [in D:\projects\microblog\app\__init__.py:44]
2018-01-24 20:16:10,580 INFO: Microblog startup [in D:\projects\microblog\app\__init__.py:44]
2018-01-24 20:18:14,135 INFO: Microblog startup [in D:\projects\microblog\app\__init__.py:44]
2018-01-24 20:31:10,449 INFO: Microblog startup [in D:\projects\microblog\app\__init__.py:44]
2018-01-24 20:33:27,583 INFO: Microblog startup [in D:\projects\microblog\app\__init__.py:44]
2018-01-24 20:34:52,343 INFO: Microblog startup [in D:\projects\microblog\app\__init__.py:44]
2018-01-31 18:27:25,392 INFO: Microblog startup [in D:\projects\microblog\app\__init__.py:45]
2018-01-31 18:54:34,606 INFO: Microblog startup [in D:\projects\microblog\app\__init__.py:45]
2018-02-03 20:51:23,712 INFO: Microblog startup [in D:\projects\microblog\app\__init__.py:45]
2018-02-03 20:55:51,373 INFO: Microblog startup [in D:\projects\microblog\app\__init__.py:45]
2018-02-03 20:55:53,900 INFO: Microblog startup [in D:\projects\microblog\app\__init__.py:45]
2018-02-03 21:25:39,790 INFO: Microblog startup [in D:\projects\microblog\app\__init__.py:45]
2018-02-03 22:14:41,056 INFO: Microblog startup [in D:\projects\microblog\app\__init__.py:45]
2018-02-03 22:16:36,341 INFO: Microblog startup [in D:\projects\microblog\app\__init__.py:45]
2018-02-03 22:18:09,138 INFO: Microblog startup [in D:\projects\microblog\app\__init__.py:45]
2018-02-03 22:19:02,442 ERROR: Exception on /explore [GET] [in d:\projects\microblog\venv\lib\site-packages\flask\app.py:1560]
Traceback (most recent call last):
  File "d:\projects\microblog\venv\lib\site-packages\sqlalchemy\sql\elements.py", line 682, in __getattr__
    return getattr(self.comparator, key)
AttributeError: 'Comparator' object has no attribute 'all'

During handling of the above exception, another exception occurred:

Traceback (most recent call last):
  File "d:\projects\microblog\venv\lib\site-packages\flask\app.py", line 1982, in wsgi_app
    response = self.full_dispatch_request()
  File "d:\projects\microblog\venv\lib\site-packages\flask\app.py", line 1614, in full_dispatch_request
    rv = self.handle_user_exception(e)
  File "d:\projects\microblog\venv\lib\site-packages\flask\app.py", line 1517, in handle_user_exception
    reraise(exc_type, exc_value, tb)
  File "d:\projects\microblog\venv\lib\site-packages\flask\_compat.py", line 33, in reraise
    raise value
  File "d:\projects\microblog\venv\lib\site-packages\flask\app.py", line 1612, in full_dispatch_request
    rv = self.dispatch_request()
  File "d:\projects\microblog\venv\lib\site-packages\flask\app.py", line 1598, in dispatch_request
    return self.view_functions[rule.endpoint](**req.view_args)
  File "d:\projects\microblog\venv\lib\site-packages\flask_login\utils.py", line 261, in decorated_view
    return func(*args, **kwargs)
  File "D:\projects\microblog\app\routes.py", line 149, in explore
    posts = Post.query.order_by(Post.timestamp.desc().all())
  File "d:\projects\microblog\venv\lib\site-packages\sqlalchemy\sql\elements.py", line 688, in __getattr__
    key)
AttributeError: Neither 'UnaryExpression' object nor 'Comparator' object has an attribute 'all'
2018-02-03 22:19:17,808 ERROR: Exception on /explore [GET] [in d:\projects\microblog\venv\lib\site-packages\flask\app.py:1560]
Traceback (most recent call last):
  File "d:\projects\microblog\venv\lib\site-packages\sqlalchemy\sql\elements.py", line 682, in __getattr__
    return getattr(self.comparator, key)
AttributeError: 'Comparator' object has no attribute 'all'

During handling of the above exception, another exception occurred:

Traceback (most recent call last):
  File "d:\projects\microblog\venv\lib\site-packages\flask\app.py", line 1982, in wsgi_app
    response = self.full_dispatch_request()
  File "d:\projects\microblog\venv\lib\site-packages\flask\app.py", line 1614, in full_dispatch_request
    rv = self.handle_user_exception(e)
  File "d:\projects\microblog\venv\lib\site-packages\flask\app.py", line 1517, in handle_user_exception
    reraise(exc_type, exc_value, tb)
  File "d:\projects\microblog\venv\lib\site-packages\flask\_compat.py", line 33, in reraise
    raise value
  File "d:\projects\microblog\venv\lib\site-packages\flask\app.py", line 1612, in full_dispatch_request
    rv = self.dispatch_request()
  File "d:\projects\microblog\venv\lib\site-packages\flask\app.py", line 1598, in dispatch_request
    return self.view_functions[rule.endpoint](**req.view_args)
  File "d:\projects\microblog\venv\lib\site-packages\flask_login\utils.py", line 261, in decorated_view
    return func(*args, **kwargs)
  File "D:\projects\microblog\app\routes.py", line 149, in explore
    posts = Post.query.order_by(Post.timestamp.desc().all())
  File "d:\projects\microblog\venv\lib\site-packages\sqlalchemy\sql\elements.py", line 688, in __getattr__
    key)
AttributeError: Neither 'UnaryExpression' object nor 'Comparator' object has an attribute 'all'
2018-02-03 22:20:43,342 INFO: Microblog startup [in D:\projects\microblog\app\__init__.py:45]
2018-02-03 22:20:49,075 ERROR: Exception on /explore [GET] [in d:\projects\microblog\venv\lib\site-packages\flask\app.py:1560]
Traceback (most recent call last):
  File "d:\projects\microblog\venv\lib\site-packages\sqlalchemy\sql\elements.py", line 682, in __getattr__
    return getattr(self.comparator, key)
AttributeError: 'Comparator' object has no attribute 'all'

During handling of the above exception, another exception occurred:

Traceback (most recent call last):
  File "d:\projects\microblog\venv\lib\site-packages\flask\app.py", line 1982, in wsgi_app
    response = self.full_dispatch_request()
  File "d:\projects\microblog\venv\lib\site-packages\flask\app.py", line 1614, in full_dispatch_request
    rv = self.handle_user_exception(e)
  File "d:\projects\microblog\venv\lib\site-packages\flask\app.py", line 1517, in handle_user_exception
    reraise(exc_type, exc_value, tb)
  File "d:\projects\microblog\venv\lib\site-packages\flask\_compat.py", line 33, in reraise
    raise value
  File "d:\projects\microblog\venv\lib\site-packages\flask\app.py", line 1612, in full_dispatch_request
    rv = self.dispatch_request()
  File "d:\projects\microblog\venv\lib\site-packages\flask\app.py", line 1598, in dispatch_request
    return self.view_functions[rule.endpoint](**req.view_args)
  File "d:\projects\microblog\venv\lib\site-packages\flask_login\utils.py", line 261, in decorated_view
    return func(*args, **kwargs)
  File "D:\projects\microblog\app\routes.py", line 149, in explore
    posts = Post.query.order_by(Post.timestamp.desc().all())
  File "d:\projects\microblog\venv\lib\site-packages\sqlalchemy\sql\elements.py", line 688, in __getattr__
    key)
AttributeError: Neither 'UnaryExpression' object nor 'Comparator' object has an attribute 'all'
2018-02-03 22:23:43,627 INFO: Microblog startup [in D:\projects\microblog\app\__init__.py:45]
2018-02-03 22:24:21,478 INFO: Microblog startup [in D:\projects\microblog\app\__init__.py:45]
2018-02-03 22:25:51,427 INFO: Microblog startup [in D:\projects\microblog\app\__init__.py:45]
2018-02-04 20:45:50,270 INFO: Microblog startup [in D:\projects\microblog\app\__init__.py:45]
2018-02-04 20:46:08,386 ERROR: Exception on /index [GET] [in d:\projects\microblog\venv\lib\site-packages\flask\app.py:1560]
Traceback (most recent call last):
  File "d:\projects\microblog\venv\lib\site-packages\flask\app.py", line 1982, in wsgi_app
    response = self.full_dispatch_request()
  File "d:\projects\microblog\venv\lib\site-packages\flask\app.py", line 1614, in full_dispatch_request
    rv = self.handle_user_exception(e)
  File "d:\projects\microblog\venv\lib\site-packages\flask\app.py", line 1517, in handle_user_exception
    reraise(exc_type, exc_value, tb)
  File "d:\projects\microblog\venv\lib\site-packages\flask\_compat.py", line 33, in reraise
    raise value
  File "d:\projects\microblog\venv\lib\site-packages\flask\app.py", line 1612, in full_dispatch_request
    rv = self.dispatch_request()
  File "d:\projects\microblog\venv\lib\site-packages\flask\app.py", line 1598, in dispatch_request
    return self.view_functions[rule.endpoint](**req.view_args)
  File "d:\projects\microblog\venv\lib\site-packages\flask_login\utils.py", line 261, in decorated_view
    return func(*args, **kwargs)
  File "D:\projects\microblog\app\routes.py", line 42, in index
    posts = current_user.followed_posts().paginate(page, app.config['POSTS_PER_PAGE'], False)
KeyError: 'POSTS_PER_PAGE'
2018-02-04 20:46:12,897 ERROR: Exception on /index [GET] [in d:\projects\microblog\venv\lib\site-packages\flask\app.py:1560]
Traceback (most recent call last):
  File "d:\projects\microblog\venv\lib\site-packages\flask\app.py", line 1982, in wsgi_app
    response = self.full_dispatch_request()
  File "d:\projects\microblog\venv\lib\site-packages\flask\app.py", line 1614, in full_dispatch_request
    rv = self.handle_user_exception(e)
  File "d:\projects\microblog\venv\lib\site-packages\flask\app.py", line 1517, in handle_user_exception
    reraise(exc_type, exc_value, tb)
  File "d:\projects\microblog\venv\lib\site-packages\flask\_compat.py", line 33, in reraise
    raise value
  File "d:\projects\microblog\venv\lib\site-packages\flask\app.py", line 1612, in full_dispatch_request
    rv = self.dispatch_request()
  File "d:\projects\microblog\venv\lib\site-packages\flask\app.py", line 1598, in dispatch_request
    return self.view_functions[rule.endpoint](**req.view_args)
  File "d:\projects\microblog\venv\lib\site-packages\flask_login\utils.py", line 261, in decorated_view
    return func(*args, **kwargs)
  File "D:\projects\microblog\app\routes.py", line 42, in index
    posts = current_user.followed_posts().paginate(page, app.config['POSTS_PER_PAGE'], False)
KeyError: 'POSTS_PER_PAGE'
